{
  "type": "service_account",
  "project_id": "preparacionipn-223404",
  "private_key_id": "5767168892e57fc5e7057ccfc1ea1babeea242ca",
  "private_key": "-----BEGIN PRIVATE KEY-----\nMIIEvgIBADANBgkqhkiG9w0BAQEFAASCBKgwggSkAgEAAoIBAQDWsC6+hcIvdZIt\np6CawCHpdVc63qBfEUeGa/NjVu15PuUuSDBzoWuoleNhd40HXh6+alikuZ3AJROe\nfoRDMaeVDZ6Da8E9QEV2lqvlEduXx95BmKgOUrd8Y+CIbvlWxsjRHCxMQpUZR+Jy\nR+7zP2f8Tsc1sK/wLCFNywD2hKqfFkbmbozr+qeT/Qb0L7PeBdOOGHEt1vx5/mQF\nSkNF0yxDu/JbGnwWD0MibcJTpaFb8RB8S1QyTTm9XGtaJDDOaSKscA06agg99/m9\nIYZXhoWe8cwRJN0EFoPBMSk8P7A2mmmg9pJDjNnzu5apnbudTyE41iO/goNT+Gap\nec3cttSBAgMBAAECggEAaZpeU+9dtpSho/15ncV2qOzETLvnrPvF8BQ3s5y10Vcj\nyqFN3AMB/vpDz9TLtV0RyF5tXhHDzBkwzlyzWI4bPdFmMIUXl7Z+tLemtFYVa1Kw\nPBoISItdoD1M3C+iTJIZg+rUy2pRBw96DvbdTh/ZWZ2ylfFkicJbW3XI8noNp5SZ\nvaMv/0tZa3zk+eGXh3E+F4AD1268Zcz3ZUOlDnjyj/ow0SkwoeVYbgHPFCzz/4h3\nCSOqgFTFmPKk2euPu6qQ1uI3rLrhK8sZ83FIqDbLUv+prM2U5zBTI2RzCfsKo6zk\nMV0A3w7ZXV8hWwlfdBlQUn/PR6fLEjPUrPz3kOwyRQKBgQD2YF0iSgRJiZp5Zu4M\nU+9uMU2uLn7rAN+uC+OmXnAwn3m+QdB902WFliBXLCGL+Eatgu7O0aubLsiA8uN/\nXPB/UNjJVdWCul8lzQjrowY/MYfKMvYaBllpklvLQqaXBbv7cqQ9vWCRVuvFEvlj\nKVzRh3UOmUiUiP2yXb3oqmKM2wKBgQDfEvQDYq8rQAJhqaI9ZbHhT39lq0gv7maD\nc1hpWUdzWwju7aLjc0VuxtGxuEiUMLgcxvH4EnCzxSPHndA1gNvgBl2ZjgxxMfWd\nXqKzY+kL/Wddj6JlR3BjSKdOBpLDrKz5RtepKzFrEU4X+lBfHKCJngyhPnhcUVhO\n2T+sxHT00wKBgQDxCcP0SP+6xkH35giczP1hDCFYeKq41YkAqScWXCxclZkw1wjY\nIRqgwAhx4H4Nh1/2XzOt6Zl/YBzPc1G5CD9N/9Wn3C7gD+AIhnjkuADjkFyuKH93\nZKDTVVozGMkM1ZJc5YLj2EQCzUwq6W5NYmkpoOGX38UPdJrnhyjF2PRDowKBgBkO\nJuwubGBeOyY/CGL/BiC5biS8PUps64S+MuL6TSUux20WseH8M4NCv5DHkxdZ9YP9\n8HWdlJ0Men1UQ2uPAqNB88dohgs8wkqfs4SUpztahf6jQGlBweTU5z3DTT6/KVqC\nU3zDxjQxaGUXD2nvbDSo1OBThO9Rj6qjihxcoIpTAoGBALoEOuGyEpVq4pfqtmLB\n/+OkAuTH23lZ7cv+QB5uMJ0OPOiVbFOeXkVqdco8hkbTW/SbRBVQEaq9PvExmw/9\ncmbWO9VHqe7piMrVoKIm4VhwzS1U7B5kOECrFgwgcRSVbWEp79ijI9ZB41V2uxjm\ndm1uzv9OTTXVUborZ39fmFKz\n-----END PRIVATE KEY-----\n",
  "client_email": "testconst@preparacionipn-223404.iam.gserviceaccount.com",
  "client_id": "111142871026300230521",
  "auth_uri": "https://accounts.google.com/o/oauth2/auth",
  "token_uri": "https://oauth2.googleapis.com/token",
  "auth_provider_x509_cert_url": "https://www.googleapis.com/oauth2/v1/certs",
  "client_x509_cert_url": "https://www.googleapis.com/robot/v1/metadata/x509/testconst%40preparacionipn-223404.iam.gserviceaccount.com"
}
